#include <cstdlib>
#include <iostream>
#include <math.h>
#include <windows.h>
#include <graphics.h>
#include <time.h>
using namespace std;


double step=M_PI/180;
const  int r=40;

int main(int argc, char *argv[])

{initwindow(1000,1000);
double R=0,xc=400,yc=600,x,y,x1,y1,x2,y2,xc2=600,yc2=400;
int a=0;
      
      while(a==0)
       {
       for(int i=360; i>1; i--)
       { double t=i*step;
        x=trunc(R=r*8*(cos(t)));
        y=trunc(R=r*3*(sin(t)));
        x1=trunc(R=r*8*(cos(2*M_PI/3+t)));
        y1=trunc(R=r*3*(sin(2*M_PI/3+t)));
        x2=trunc(R=r*8*(cos(4*M_PI/3+t)));
        y2=trunc(R=r*3*(sin(4*M_PI/3+t)));
        setcolor(11);
         
        setcolor(12);
        
        setcolor(10);
        moveto(xc+x,yc-y);
        lineto(xc,100);
        moveto(xc+x,yc-y);
        lineto(xc+x1,yc-y1);
        lineto(xc,100);
        moveto(xc+x1,yc-y1);
        lineto(xc+x2,yc-y2);
        lineto(xc,100);
        moveto(xc+x2,yc-y2);
        
        lineto(xc+x,yc-y);
        
         setcolor(0);
          Sleep(40);
         
        lineto(xc+x1,yc-y1);
        lineto(xc+x2,yc-y2);
        lineto(xc+x,yc-y);
       
        moveto(xc+x,yc-y);
        lineto(xc,100);
        moveto(xc+x1,yc-y1);
        lineto(xc,100);
         moveto(xc+x2,yc-y2);
         lineto(xc,100);
        
        moveto(xc+x,yc-y);
         line(xc-x,yc+y,xc+x,yc-y);
        line(xc-x1,yc+y1,xc+x1,yc-y1);
        line(xc-x2,yc+y2,xc+x2,yc-y2);
        }//1
         
        
        
        
          if (kbhit())
{
a=getch();}
    if (a!=0) exit(0);
    
 }
        
       
    
    return EXIT_SUCCESS;
}
fdhsthysthsdfhgfh